<svg xmlns="http://www.w3.org/2000/svg" viewBox="0 0 1920 763.22"><defs>
<style>
.cls-1{fill:#f1f1f2;}.cls-2{fill:#c1e6e5;}.cls-3{fill:#e6e7e8;}.cls-4{fill:#dad2bb;}.cls-5{fill:#8e7d67;}.cls-6{fill:#d4cba9;}.cls-7{fill:#afbeb8;}.cls-8{fill:#307dba;}.cls-9{fill:#a3c5e0;}.cls-10{fill:#ffdd15;}.cls-11,.cls-17{fill:#15648f;}.cls-12{fill:#98999e;}.cls-13,.cls-15{fill:#7f8087;}.cls-14{fill:#c6c7c2;}.cls-15{stroke:#7f8087;}.cls-15,.cls-17,.cls-18,.cls-30,.cls-43{stroke-miterlimit:10;}.cls-16{fill:#8899ab;}.cls-17,.cls-18{stroke:#15648f;}.cls-18,.cls-30{fill:none;}.cls-19{fill:#e6e1ce;}.cls-20,.cls-42{fill:#c1b58f;}.cls-21{fill:#7e5c3b;}.cls-22{fill:#64933f;}.cls-23{fill:#7bba53;}.cls-24{fill:#aeb341;}.cls-25{fill:#7fb141;}.cls-26{fill:#b2d33f;}.cls-27{font-size:30px;fill:#bbbdbf;font-family:StructrBold, StructrBold;letter-spacing:0.03em;}.cls-28{letter-spacing:0.02em;}.cls-29{fill:#414141;}.cls-30{stroke:#bbbdbf;}.cls-31{fill:#fdd461;}.cls-32{fill:#fbb315;}.cls-33{fill:#d18129;}.cls-34{fill:#b3e3f9;}.cls-35{fill:#fcb315;}.cls-36{fill:#f89a23;}.cls-37{fill:#5480aa;}.cls-38{fill:#484757;}.cls-39{fill:#b6b6b7;}.cls-40{fill:#3b3b46;}.cls-41{fill:#a8cf38;}.cls-42{stroke:#c1b58f;stroke-linecap:round;stroke-linejoin:round;stroke-width:5px;}.cls-43{fill:#58595b;stroke:#58595b;}.cls-44{fill:#ccd5d2;}.cls-45{fill:#63616f;}.cls-46{fill:#b9e4f7;}.cls-47{fill:#78b8e4;}.cls-48{fill:#6b758e;}.cls-49{fill:#f99f1b;}.cls-50{fill:#ffd69f;}.cls-51{fill:#53afe2;}.cls-52{fill:#90c84b;}.cls-53{fill:#963994;}.cls-54{fill:#009091;}.cls-55{fill:#68eae4;}.cls-56{fill:#ffcf2a;}.cls-57{fill:#fce5a7;}.cls-58{fill:#6460aa;}.cls-59{fill:#c33766;}.cls-60{fill:#cce8a3;}.cls-61{fill:#ffabcb;}.cls-62{fill:#e591e5;}.cls-63{fill:#b3b3f4;}.cls-64{fill:#ace3fc;}

.st0{fill:#C9C9C9;}
	.st1{fill:#EAEAEA;}
	.st2{fill:#D8D8D8;}
	.st3{fill:#E6E7E8;}
	.st4{fill:#F1F1F2;}
	.st5{fill:none;stroke:#E2E2E2;stroke-width:5;stroke-miterlimit:10;}
	.st6{fill:none;stroke:#D0D2D3;stroke-width:5;stroke-miterlimit:10;}
	.st7{fill:#8E8E8E;}
	.st8{fill:#E0E0E0;}
	.st9{fill:#929497;}
	.st10{fill:#6D6E70;}
	.st11{fill:none;stroke:#A6A8AB;stroke-miterlimit:10;}
	.st12{fill:#98999E;}
	.st13{fill:#7F8087;stroke:#7F8087;stroke-miterlimit:10;}
	.st14{fill:#7E5C3B;}
	.st15{fill:#64933F;}
	.st16{fill:#7BBA53;}
	.st17{fill:#AEB341;}
	.st18{fill:#7FB141;}
	.st19{fill:#B2D33F;}
	.st20{fill:#E6E1CE;}
	.st21{fill:#CCCCCC;}
	.st22{fill:#3B3B46;}
	.st23{fill:#B6B6B7;}
	.st24{fill:#A8CF38;}
	.st25{fill:#63616F;}
	.st26{fill:#FFCF2A;}
	.st27{fill:#BBBDBF;stroke:#BBBDBF;stroke-miterlimit:10;}
	.st28{fill:#53AFE2;}
	.st29{fill:#90C84B;}
	.st30{fill:#6460AA;}
	.st31{fill:#F99F1B;}
	.st32{fill:#C33766;}
	.st33{fill:#009091;}
	.st34{fill:#963994;}
	.st35{fill:#FDD461;}
	.st36{fill:#FBB315;}
	.st37{fill:#D18129;}
	.st38{fill:#B3E3F9;}
	.st39{fill:#FCB315;}
	.st40{fill:#F89A23;}
	.st41{fill:#5480AA;}
	.st42{fill:#484757;}
	.st43{fill:#FFD69F;}
	.st44{fill:#68EAE4;}
	.st45{fill:#FCE5A7;}
	.st46{fill:#CCE8A3;}
	.st47{fill:#FFABCB;}
	.st48{fill:#E591E5;}
	.st49{fill:#B3B3F4;}
	.st50{fill:#ACE3FC;}

<!-- animaton cua bong bong -->

#bong-bong {
transform:translateY(230px);
}
.bong1 {
	animation:bong1 15s linear infinite;
	
}
.bong2 {
	animation:bong1 15s linear infinite;
	animation-delay:2s;
}
.bong3 {
	transform:translateX(60px);
	animation:bong1 15s linear infinite;
	animation-delay:6s;
}
.bong4 {
	transform:translateX(60px);
	animation:bong1 15s linear infinite;
	animation-delay:4s;
}
.bong5 {
	transform:translateY(20px);
	animation:bong1 15s linear infinite;
	animation-delay:8s;
}
.bong6 {
	transform: translateY(-60px);
	animation:bong1 15s linear infinite;
	animation-delay:10s;
}
.bong7 {
	transform: translateX(-30px);
	animation:bong1 15s linear infinite;
	animation-delay:12s;
}
.bong8 {
	animation:bong1 15s linear infinite;
	animation-delay:14s;
}

 @keyframes bong1 {
	0%{
		transform:translateY(0px);
	}
	100% {
		transform:translateY(-1000px);
	}
}

<!-- end -->
.DM__Metro {
z-index:1000;
}
.cls-44 {
    z-index:1000;
}
.siva {
    animation:hello 15s linear infinite;
    transform-origin:70.213% 67.243%;
}
.DM__coixaygio {
    animation:hello 5s linear infinite;
    transform-origin:93.7578% 67.2983% ;

}
.cloud--left1 {
    animation:cloudRunLeft1 50s linear infinite;
}
@keyframes cloudRunLeft1 {
    0% {
        transform:translateX(700px);
    }
    100% {
        transform:translateX(-1900px);
    }
}

.cloud--left2 {
    animation:cloudRunLeft2 50s linear infinite;

}
@keyframes cloudRunLeft2 {
    0% {
        transform:translateX(700px);
    }
    100% {
        transform:translateX(-1900px);
    }
}
.cloud--left3 {
    animation:cloudRunLeft3 50s linear infinite;
    
}
@keyframes cloudRunLeft3 {
    0% {
        transform:translateX(-700px);
    }
    100% {
        transform:translateX(1900px);
    }
}
.cloud--left4 {
    animation:cloudRunLeft4 50s linear infinite;
    
}
@keyframes cloudRunLeft4 {
    0% {
        transform:translateX(-700px);
    }
    100% {
        transform:translateX(1900px);
    }
}
.cloud--left5 {
    animation:cloudRunLeft5 50s linear infinite;

}
@keyframes cloudRunLeft5 {
    0% {
        transform:translateX(1900px);
    }
    100% {
        transform:translateX(-1900px);
    }
}
@keyframes hello {
    0% {
        transform:rotate(0deg);
    }
    100% {
        transform:rotate(360deg);
    }
}
.DM__Metro {
    z-index: 1000;
  animation:trainRun 10s linear infinite ;
  
<!-- animation:circle 4s linear infinite ; -->
transform-origin:50% 50%;
}
@keyframes trainRun {
    0%   {
    transform: translateX(-1200px)
    }
    100% {
        transform: translateX(1900px);
        animation-delay:2s;
    }
}
</style>
</defs><title>Demo</title><g id="BG">
	
	<g id="Nha">
		<g>
			<rect x="1205.1" y="724.9" class="st1" width="291.9" height="12.6"/>
			<rect x="1205.1" y="749.9" class="st1" width="291.9" height="12.6"/>
			<rect x="1205.1" y="700" class="st1" width="291.9" height="12.6"/>
			<rect x="1205.1" y="774.9" class="st1" width="291.9" height="12.6"/>
		</g>
		<g>
			<rect x="750" y="687.5" class="st2" width="25" height="110.7"/>
			<rect x="649.8" y="649.7" class="st3" width="100.2" height="137.9"/>
			<rect x="774.8" y="650.3" class="st3" width="100.2" height="137.4"/>
			<rect x="662.5" y="637.5" class="st2" width="74.9" height="12.7"/>
			<rect x="787.4" y="637.5" class="st2" width="74.9" height="12.7"/>
			<rect x="774.9" y="631" class="st3" width="100.2" height="6.4"/>
			<rect x="649.8" y="631" class="st3" width="100.2" height="6.4"/>
		</g>
		<g>
			<rect x="937.5" y="531.6" class="st4" width="162.5" height="162.5"/>
			<rect x="937.5" y="550.3" class="st2" width="162.5" height="12.6"/>
			<rect x="937.5" y="531.6" class="st2" width="162.5" height="12.6"/>
			<rect x="937.5" y="569.4" class="st2" width="162.5" height="12.6"/>
			<rect x="937.5" y="588.3" class="st2" width="162.5" height="12.6"/>
			<rect x="937.5" y="607.2" class="st2" width="162.5" height="12.6"/>
			<rect x="937.5" y="626.1" class="st2" width="162.5" height="12.6"/>
			<rect x="937.5" y="645.1" class="st2" width="162.5" height="12.6"/>
			<rect x="937.5" y="664" class="st2" width="162.5" height="12.6"/>
		</g>
		<g>
			<rect x="820.8" y="693.9" class="st4" width="396.5" height="100.1"/>
			<rect x="812.5" y="683.3" class="st2" width="412.5" height="12.6"/>
			<rect x="825" y="706.3" class="st2" width="37.5" height="6.3"/>
			<rect x="825" y="718.8" class="st2" width="37.5" height="6.3"/>
			<rect x="825" y="731.3" class="st2" width="37.5" height="6.3"/>
			<rect x="825" y="743.8" class="st2" width="37.5" height="6.3"/>
			<rect x="875" y="706.3" class="st2" width="37.5" height="6.3"/>
			<rect x="875" y="718.8" class="st2" width="37.5" height="6.3"/>
			<rect x="875" y="731.3" class="st2" width="37.5" height="6.3"/>
			<rect x="875" y="743.8" class="st2" width="37.5" height="6.3"/>
			<rect x="925" y="706.3" class="st2" width="37.5" height="6.3"/>
			<rect x="925" y="718.8" class="st2" width="37.5" height="6.3"/>
			<rect x="925" y="731.3" class="st2" width="37.5" height="6.3"/>
			<rect x="925" y="743.8" class="st2" width="37.5" height="6.3"/>
			<rect x="975" y="706.3" class="st2" width="37.5" height="6.3"/>
			<rect x="975" y="718.8" class="st2" width="37.5" height="6.3"/>
			<rect x="975" y="731.3" class="st2" width="37.5" height="6.3"/>
			<rect x="975" y="743.8" class="st2" width="37.5" height="6.3"/>
			<rect x="1025" y="706.3" class="st2" width="37.5" height="6.3"/>
			<rect x="1025" y="718.8" class="st2" width="37.5" height="6.3"/>
			<rect x="1025" y="731.3" class="st2" width="37.5" height="6.3"/>
			<rect x="1025" y="743.8" class="st2" width="37.5" height="6.3"/>
			<rect x="1075" y="706.3" class="st2" width="37.5" height="6.3"/>
			<rect x="1075" y="718.8" class="st2" width="37.5" height="6.3"/>
			<rect x="1075" y="731.3" class="st2" width="37.5" height="6.3"/>
			<rect x="1075" y="743.8" class="st2" width="37.5" height="6.3"/>
			<rect x="1125" y="706.3" class="st2" width="37.5" height="6.3"/>
			<rect x="1125" y="718.8" class="st2" width="37.5" height="6.3"/>
			<rect x="1125" y="731.3" class="st2" width="37.5" height="6.3"/>
			<rect x="1125" y="743.8" class="st2" width="37.5" height="6.3"/>
			<rect x="1175" y="706.3" class="st2" width="37.5" height="6.3"/>
			<rect x="1175" y="718.8" class="st2" width="37.5" height="6.3"/>
			<rect x="1175" y="731.3" class="st2" width="37.5" height="6.3"/>
			<rect x="1175" y="743.8" class="st2" width="37.5" height="6.3"/>
			<rect x="825" y="756.3" class="st2" width="387.5" height="6.3"/>
			<rect x="975" y="768.8" class="st2" width="87.5" height="6.3"/>
		</g>
		<rect x="1487.6" y="662.1" class="st4" width="75.8" height="137.9"/>
		<g>
			<g>
				<rect x="456.3" y="375" class="st4" width="137.1" height="418.9"/>
				<line class="st5" x1="468.6" y1="375" x2="468.6" y2="537.7"/>
				<line class="st5" x1="481.1" y1="375" x2="481.1" y2="500"/>
				<line class="st5" x1="493.6" y1="375" x2="493.6" y2="525"/>
				<line class="st5" x1="506.1" y1="375" x2="506.1" y2="650"/>
				<line class="st5" x1="518.6" y1="375" x2="518.6" y2="537.4"/>
				<line class="st5" x1="531.1" y1="375" x2="531.1" y2="662.6"/>
				<line class="st5" x1="543.6" y1="375" x2="543.6" y2="512.5"/>
				<line class="st5" x1="556.1" y1="375" x2="556.1" y2="575"/>
				<line class="st5" x1="568.6" y1="375" x2="568.6" y2="600"/>
				<line class="st5" x1="581.1" y1="375" x2="581.1" y2="537.5"/>
			</g>
			<line class="st6" x1="456.3" y1="375" x2="456.3" y2="793.9"/>
			<line class="st6" x1="593.4" y1="375" x2="593.4" y2="793.9"/>
		</g>
		<g>
			<g>
				<rect x="1481.3" y="662.4" class="st7" width="94.7" height="12.6"/>
				<g>
					<rect x="1487.6" y="687.4" class="st8" width="88.3" height="12.6"/>
				</g>
				<g>
					<rect x="1487.6" y="712.4" class="st8" width="88.3" height="12.6"/>
				</g>
				<g>
					<rect x="1487.6" y="737.4" class="st8" width="88.3" height="12.6"/>
				</g>
				<g>
					<rect x="1487.6" y="762.4" class="st8" width="88.3" height="12.6"/>
				</g>
			</g>
		</g>
		<g>
			<rect x="331.8" y="687.5" class="st4" width="373.9" height="100.1"/>
			<rect x="331.8" y="674.9" class="st7" width="380.2" height="12.6"/>
			<rect x="331.8" y="700" class="st2" width="374.2" height="12.6"/>
			<rect x="331.8" y="725" class="st2" width="374.2" height="12.6"/>
			<rect x="331.8" y="750" class="st2" width="374.2" height="12.6"/>
			<rect x="331.8" y="775.3" class="st2" width="374.2" height="12.6"/>
		</g>
		<g>
			<rect x="32.1" y="525" class="st4" width="212.5" height="275.1"/>
			<rect x="32.2" y="512.5" class="st7" width="212.4" height="12.5"/>
			<g>
				<rect x="44.6" y="587.5" class="st8" width="12.5" height="12.5"/>
				<rect x="69.6" y="600" class="st8" width="12.5" height="25"/>
				<rect x="69.6" y="575" class="st8" width="12.5" height="12.5"/>
				<rect x="69.6" y="537.6" class="st8" width="12.5" height="24.9"/>
				<rect x="119.6" y="600" class="st8" width="12.5" height="25"/>
				<rect x="119.6" y="637.4" class="st8" width="12.5" height="25"/>
				<rect x="119.6" y="575" class="st8" width="12.5" height="12.5"/>
				<rect x="119.6" y="537.6" class="st8" width="12.5" height="24.9"/>
				<rect x="169.6" y="612.4" class="st8" width="12.5" height="25"/>
				<rect x="169.6" y="649.9" class="st8" width="12.5" height="25"/>
				<rect x="169.6" y="687.5" class="st8" width="12.5" height="25"/>
				<rect x="169.6" y="537.6" class="st8" width="12.5" height="24.9"/>
				<rect x="94.6" y="624.9" class="st8" width="12.5" height="25"/>
				<rect x="94.6" y="587.5" class="st8" width="12.5" height="25"/>
				<rect x="44.6" y="562.5" class="st8" width="12.5" height="12.5"/>
				<rect x="44.6" y="537.6" class="st8" width="12.5" height="12.5"/>
				<rect x="94.6" y="562.5" class="st8" width="12.5" height="12.5"/>
				<rect x="94.6" y="537.6" class="st8" width="12.5" height="12.5"/>
				<rect x="144.6" y="624.9" class="st8" width="12.5" height="25"/>
				<rect x="144.6" y="662.7" class="st8" width="12.5" height="25"/>
				<rect x="144.6" y="587.5" class="st8" width="12.5" height="25"/>
				<rect x="169.6" y="575" class="st8" width="12.5" height="25"/>
				<rect x="219.6" y="612.4" class="st8" width="12.5" height="25"/>
				<rect x="219.6" y="649.9" class="st8" width="12.5" height="25"/>
				<rect x="219.6" y="687.5" class="st8" width="12.5" height="25"/>
				<rect x="219.6" y="725" class="st8" width="12.5" height="25"/>
				<rect x="219.6" y="537.6" class="st8" width="12.5" height="24.9"/>
				<rect x="219.6" y="575" class="st8" width="12.5" height="25"/>
				<rect x="144.6" y="562.5" class="st8" width="12.5" height="12.5"/>
				<rect x="144.6" y="537.6" class="st8" width="12.5" height="12.5"/>
				<rect x="194.6" y="637.4" class="st8" width="12.5" height="25"/>
				<rect x="194.6" y="675.2" class="st8" width="12.5" height="25"/>
				<rect x="194.6" y="712.5" class="st8" width="12.5" height="25"/>
				<rect x="194.6" y="599.9" class="st8" width="12.5" height="25"/>
				<rect x="194.6" y="562.4" class="st8" width="12.5" height="25.1"/>
				<rect x="194.6" y="537.6" class="st8" width="12.5" height="12.5"/>
				<rect x="44.6" y="612.4" class="st8" width="12.5" height="187.8"/>
				<rect x="69.6" y="637.6" class="st8" width="12.5" height="162.5"/>
				<rect x="94.6" y="662.6" class="st8" width="12.5" height="137.4"/>
				<rect x="119.6" y="675.2" class="st8" width="12.5" height="124.8"/>
				<rect x="144.6" y="700" class="st8" width="12.5" height="99.9"/>
				<rect x="169.6" y="725" class="st8" width="12.5" height="74.9"/>
				<rect x="194.6" y="750" class="st8" width="12.5" height="49.9"/>
				<rect x="219.6" y="762.5" class="st8" width="12.5" height="37.4"/>
			</g>
		</g>
		<g>
			<path class="st9" d="M156.8,250c0,6.9,5.6,12.5,12.5,12.5v0h116.5V250C285.7,250,163.6,250,156.8,250z"/>
			<polyline class="st10" points="280.6,800.1 244.2,800.1 244.2,262.1 280.6,262.1 			"/>
			<polygon class="st3" points="369.3,800.1 256.8,800.1 256.8,312.1 331.8,137.1 369.3,137.1 			"/>
			<g>
				<polygon class="st11" points="369.3,287.5 267.5,287.5 369.3,287.5 				"/>
				<polygon class="st11" points="369.3,312.5 256.8,312.5 256.8,312.5 369.3,312.5 				"/>
				<polygon class="st11" points="369.3,337.5 256.8,337.5 256.8,337.5 369.3,337.5 				"/>
				<polygon class="st11" points="369.3,362.5 256.8,362.5 256.8,362.5 369.3,362.5 				"/>
				<polygon class="st11" points="369.3,387.5 256.8,387.5 256.8,387.5 369.3,387.5 				"/>
				<polygon class="st11" points="369.3,412.5 256.8,412.5 256.8,412.5 369.3,412.5 				"/>
				<polygon class="st11" points="369.3,437.5 256.8,437.5 256.8,437.5 369.3,437.5 				"/>
				<polygon class="st11" points="369.3,462.5 256.8,462.5 256.8,462.5 369.3,462.5 				"/>
				<polygon class="st11" points="369.3,487.5 256.8,487.5 256.8,487.5 369.3,487.5 				"/>
				<polygon class="st11" points="369.3,512.5 256.8,512.5 256.8,512.5 369.3,512.5 				"/>
				<polygon class="st11" points="369.3,537.5 256.8,537.5 256.8,537.5 369.3,537.5 				"/>
				<polygon class="st11" points="369.3,562.5 256.8,562.5 256.8,562.5 369.3,562.5 				"/>
				<polygon class="st11" points="369.3,587.5 256.8,587.5 256.8,587.5 369.3,587.5 				"/>
				<polygon class="st11" points="369.3,612.5 256.8,612.5 256.8,612.5 369.3,612.5 				"/>
				<polygon class="st11" points="369.3,637.5 256.8,637.5 256.8,637.5 369.3,637.5 				"/>
				<polygon class="st11" points="369.3,662.5 256.8,662.5 256.8,662.5 369.3,662.5 				"/>
				<polygon class="st11" points="369.3,687.5 256.8,687.5 256.8,687.5 369.3,687.5 				"/>
				<polygon class="st11" points="369.3,712.5 256.8,712.5 256.8,712.5 369.3,712.5 				"/>
				<polygon class="st11" points="369.3,737.5 256.8,737.5 256.8,737.5 369.3,737.5 				"/>
				<polygon class="st11" points="369.3,762.5 256.8,762.5 256.8,762.5 369.3,762.5 				"/>
				<polygon class="st11" points="369.3,787.5 256.8,787.5 256.8,787.5 369.3,787.5 				"/>
				<line class="st11" x1="269.3" y1="283.5" x2="269.3" y2="800.1"/>
				<line class="st11" x1="281.8" y1="254.3" x2="281.8" y2="800.1"/>
				<line class="st11" x1="294.3" y1="225" x2="294.3" y2="800.1"/>
				<line class="st11" x1="306.8" y1="195.9" x2="306.8" y2="800.1"/>
				<line class="st11" x1="319.3" y1="166.7" x2="319.3" y2="800.1"/>
				<line class="st11" x1="331.8" y1="137.5" x2="331.8" y2="800.1"/>
				<line class="st11" x1="344.3" y1="137.5" x2="344.3" y2="800.1"/>
				<line class="st11" x1="356.8" y1="137.5" x2="356.8" y2="800.1"/>
				<polygon class="st11" points="369.3,262.6 278.3,262.6 369.3,262.6 				"/>
				<polygon class="st11" points="369.3,237.5 288.9,237.5 288.9,237.5 369.3,237.5 				"/>
				<polygon class="st11" points="369.3,212.4 299.4,212.4 299.4,212.4 369.3,212.4 				"/>
				<polygon class="st11" points="369.3,187.3 310.4,187.3 310.4,187.3 369.3,187.3 				"/>
				<polygon class="st11" points="369.3,162.2 321.2,162.2 321.2,162.2 369.3,162.2 				"/>
			</g>
			<path class="st3" d="M244.1,312.3c0-27.1,0-41.1,0.1-49.8c-28.1,0-12.1,0-49.8,0C194.4,290,216.6,312.3,244.1,312.3z"/>
		</g>
		<rect x="1662.5" y="612.5" class="st4" width="212.3" height="187.6"/>
		<rect x="1700.6" y="600" class="st7" width="186.7" height="12.5"/>
		<g>
			<g>
				<g>
					<rect x="1700" y="625.1" class="st8" width="175.1" height="12.5"/>
				</g>
				<g>
					<rect x="1700" y="650.1" class="st8" width="175.1" height="12.5"/>
				</g>
				<g>
					<rect x="1700" y="675.1" class="st8" width="175.1" height="12.5"/>
				</g>
				<g>
					<rect x="1700" y="700.1" class="st8" width="175.1" height="12.5"/>
				</g>
				<g>
					<rect x="1700" y="725.1" class="st8" width="175.1" height="12.5"/>
				</g>
				<g>
					<rect x="1700" y="750.1" class="st8" width="175.1" height="12.5"/>
				</g>
				<g>
					<rect x="1700" y="775" class="st8" width="175.1" height="12.5"/>
				</g>
			</g>
		</g>
		
		<g>
			<g>
				<rect x="1563.6" y="249.6" class="st12" width="75" height="37.5"/>
				<rect x="1563.6" y="324.6" class="st12" width="112.5" height="50"/>
				<rect x="1551.1" y="111.1" class="st10" width="12.5" height="689.1"/>
				<rect x="1563.6" y="287.1" class="st3" width="93.8" height="37.5"/>
				<rect x="1563.6" y="374.6" class="st3" width="124.6" height="87.5"/>
				<rect x="1563.3" y="462.1" class="st12" width="137.3" height="325.1"/>
				<rect x="1563.6" y="174.6" class="st3" width="25" height="75"/>
				<path class="st3" d="M1551.1,123.6c0-6.8,0-10.3,0-12.5c7,0,3,0,12.5,0C1563.6,118,1558,123.6,1551.1,123.6z"/>
			</g>
			<g>
				<line class="st13" x1="1563.6" y1="249.6" x2="1588.6" y2="249.6"/>
				<line class="st13" x1="1563.6" y1="237.1" x2="1588.6" y2="237.1"/>
				<line class="st13" x1="1563.6" y1="224.6" x2="1588.6" y2="224.6"/>
				<line class="st13" x1="1563.6" y1="212.1" x2="1588.6" y2="212.1"/>
				<line class="st13" x1="1563.6" y1="199.6" x2="1588.6" y2="199.6"/>
				<line class="st13" x1="1563.6" y1="187.1" x2="1588.6" y2="187.1"/>
				<line class="st13" x1="1563.4" y1="262.1" x2="1638.6" y2="262.1"/>
				<line class="st13" x1="1563.4" y1="274.6" x2="1638.6" y2="274.6"/>
				<line class="st13" x1="1563.4" y1="287.1" x2="1638.6" y2="287.1"/>
				<line class="st13" x1="1563.4" y1="299.6" x2="1657.3" y2="299.6"/>
				<line class="st13" x1="1563.4" y1="312.1" x2="1657.3" y2="312.1"/>
				<line class="st13" x1="1563.4" y1="324.6" x2="1657.3" y2="324.6"/>
				<line class="st13" x1="1563.4" y1="337.1" x2="1675.1" y2="337.1"/>
				<line class="st13" x1="1563.4" y1="349.6" x2="1675.1" y2="349.6"/>
				<line class="st13" x1="1563.4" y1="362.1" x2="1675.1" y2="362.1"/>
				<line class="st13" x1="1563.4" y1="374.6" x2="1675.1" y2="374.6"/>
				<line class="st13" x1="1563.4" y1="387.1" x2="1688.1" y2="387.1"/>
				<line class="st13" x1="1563.4" y1="399.6" x2="1688.1" y2="399.6"/>
				<line class="st13" x1="1563.4" y1="412.1" x2="1688.1" y2="412.1"/>
				<line class="st13" x1="1563.4" y1="424.6" x2="1688.1" y2="424.6"/>
				<line class="st13" x1="1563.4" y1="437.1" x2="1688.1" y2="437.1"/>
				<line class="st13" x1="1563.4" y1="449.6" x2="1688.1" y2="449.6"/>
				<line class="st13" x1="1563.4" y1="462.1" x2="1688.1" y2="462.1"/>
				<line class="st13" x1="1563.4" y1="474.6" x2="1700.6" y2="474.6"/>
				<line class="st13" x1="1563.4" y1="487.1" x2="1700.6" y2="487.1"/>
				<line class="st13" x1="1563.4" y1="499.6" x2="1700.6" y2="499.6"/>
				<line class="st13" x1="1563.4" y1="512.1" x2="1700.6" y2="512.1"/>
				<line class="st13" x1="1563.4" y1="524.6" x2="1700.6" y2="524.6"/>
				<line class="st13" x1="1563.4" y1="537.1" x2="1700.6" y2="537.1"/>
				<line class="st13" x1="1563.4" y1="549.6" x2="1700.6" y2="549.6"/>
				<line class="st13" x1="1563.4" y1="562.1" x2="1700.6" y2="562.1"/>
				<line class="st13" x1="1563.4" y1="574.6" x2="1700.6" y2="574.6"/>
				<line class="st13" x1="1563.4" y1="587.1" x2="1700.6" y2="587.1"/>
				<line class="st13" x1="1563.4" y1="599.6" x2="1700.6" y2="599.6"/>
				<line class="st13" x1="1563.4" y1="612.1" x2="1700.6" y2="612.1"/>
				<line class="st13" x1="1563.4" y1="624.6" x2="1700.6" y2="624.6"/>
				<line class="st13" x1="1563.4" y1="637.1" x2="1700.6" y2="637.1"/>
				<line class="st13" x1="1563.4" y1="649.6" x2="1700.6" y2="649.6"/>
				<line class="st13" x1="1563.4" y1="662.1" x2="1700.6" y2="662.1"/>
				<line class="st13" x1="1563.4" y1="674.6" x2="1700.6" y2="674.6"/>
				<line class="st13" x1="1563.4" y1="687.1" x2="1700.6" y2="687.1"/>
				<line class="st13" x1="1563.4" y1="699.6" x2="1700.6" y2="699.6"/>
				<line class="st13" x1="1563.4" y1="712.1" x2="1700.6" y2="712.1"/>
				<line class="st13" x1="1563.4" y1="724.6" x2="1700.6" y2="724.6"/>
				<line class="st13" x1="1563.4" y1="737.1" x2="1700.6" y2="737.1"/>
				<line class="st13" x1="1563.4" y1="749.6" x2="1700.6" y2="749.6"/>
				<line class="st13" x1="1563.4" y1="762.1" x2="1700.6" y2="762.1"/>
				<line class="st13" x1="1563.4" y1="774.6" x2="1700.6" y2="774.6"/>
				<line class="st13" x1="1563.4" y1="787.1" x2="1700.6" y2="787.1"/>
			</g>
		</g>
	</g>
	<rect id="cot-quat-gio" x="1793.7" y="512.1" class="st0" width="12.5" height="288.1"/>
	<g id="bong-bong">
	<g id="_x38_" class="bong1">
		<circle class="st26" cx="462.5" cy="453.5" r="12.5"/>
		<line class="st27" x1="462.5" y1="466" x2="462.5" y2="503.5"/>
	</g>
	<g id="_x37_" class="bong2">
		<circle class="st28" cx="433.6" cy="432.5" r="12.5"/>
		<line class="st27" x1="433.6" y1="445" x2="433.6" y2="482.5"/>
	</g>
	<g id="_x36_" class="bong3">
		<circle class="st29" cx="386.6" cy="475.7" r="12.5"/>
		<line class="st27" x1="386.6" y1="488.2" x2="386.6" y2="525.7"/>
	</g>
	<g id="_x35_" class="bong4">
		<circle class="st30" cx="396.1" cy="384.6" r="12.5"/>
		<line class="st27" x1="396.1" y1="397.1" x2="396.1" y2="434.6"/>
	</g>
	<g id="_x34_" class="bong5">
		<circle class="st31" cx="421.1" cy="318.8" r="12.5"/>
		<line class="st27" x1="421.1" y1="331.3" x2="421.1" y2="368.8"/>
	</g>
	<g id="_x33_" class="bong6">
		<circle class="st32" cx="350" cy="417" r="12.5"/>
		<line class="st27" x1="350" y1="428.6" x2="350" y2="466.1"/>
	</g>
	<g id="_x32_" class="bong7">
		<circle class="st33" cx="500.1" cy="400.4" r="12.5"/>
		<line class="st27" x1="500.1" y1="413.9" x2="500.1" y2="451.4"/>
	</g>
	<g id="_x31_" class="bong8">
		<circle class="st34" cx="462.5" cy="353.3" r="12.5"/>
		<line class="st27" x1="462.5" y1="365.8" x2="462.5" y2="403.3"/>
	</g>
</g>
	<g id="Cay">
		<g>
			<rect x="680.7" y="587.7" class="st14" width="12.5" height="212.5"/>
			<g>
				<g>
					<rect x="700" y="575.2" class="st15" width="25" height="12.5"/>
					<g>
						<path class="st15" d="M737.5,587.7c0-6.9-5.6-12.5-12.5-12.5c-6.9,0-12.5,5.6-12.5,12.5"/>
					</g>
					<path class="st15" d="M687.5,587.7c0-6.9,5.6-12.5,12.5-12.5c6.9,0,12.5,5.6,12.5,12.5"/>
				</g>
			</g>
			<g>
				<g>
					<rect x="650" y="575.2" class="st15" width="25" height="12.5"/>
					<g>
						<path class="st15" d="M687.5,587.7c0-6.9-5.6-12.5-12.5-12.5c-6.9,0-12.5,5.6-12.5,12.5"/>
					</g>
					<path class="st15" d="M637.6,587.7c0-6.9,5.6-12.5,12.5-12.5c6.9,0,12.5,5.6,12.5,12.5"/>
				</g>
			</g>
			<g>
				<g>
					<rect x="637.6" y="562.7" class="st16" width="25" height="12.5"/>
					<g>
						<path class="st16" d="M675,575.2c0-6.9-5.6-12.5-12.5-12.5c-6.9,0-12.5,5.6-12.5,12.5"/>
					</g>
					<path class="st16" d="M625.1,575.2c0-6.9,5.6-12.5,12.5-12.5c6.9,0,12.5,5.6,12.5,12.5"/>
				</g>
			</g>
			<g>
				<g>
					<rect x="712.5" y="562.7" class="st16" width="25" height="12.5"/>
					<g>
						<path class="st16" d="M750,575.2c0-6.9-5.6-12.5-12.5-12.5s-12.5,5.6-12.5,12.5"/>
					</g>
					<path class="st16" d="M700,575.2c0-6.9,5.6-12.5,12.5-12.5c6.9,0,12.5,5.6,12.5,12.5"/>
				</g>
			</g>
			<g>
				<g>
					<path class="st17" d="M700,575.2c0-6.9-5.6-12.5-12.5-12.5c-6.9,0-12.5,5.6-12.5,12.5"/>
				</g>
			</g>
			<path class="st17" d="M668.2,587.7c6.8,0,10.3,0,12.5,0c0,7,0,3,0,12.5C673.8,600.2,668.2,594.6,668.2,587.7z"/>
			<path class="st15" d="M668.2,612.7c0-6.8,0-10.3,0-12.5c7,0,3,0,12.5,0C680.7,607.1,675.1,612.7,668.2,612.7z"/>
			<path class="st15" d="M693.2,600.2c6.8,0,10.3,0,12.5,0c0,7,0,3,0,12.5C698.8,612.7,693.2,607.1,693.2,600.2z"/>
			<path class="st16" d="M718.2,600.2c-6.8,0-10.3,0-12.5,0c0-7,0-3,0-12.5C712.6,587.7,718.2,593.3,718.2,600.2z"/>
			<path class="st16" d="M668.2,587.7c0,6.8,0,10.3,0,12.5c-7,0-3,0-12.5,0C655.7,593.3,661.3,587.7,668.2,587.7z"/>
			<path class="st17" d="M705.7,587.7c-6.8,0-10.3,0-12.5,0c0,7,0,3,0,12.5C700.1,600.2,705.7,594.6,705.7,587.7z"/>
		</g>
		<g>
			<rect x="567.6" y="637.8" class="st14" width="12.5" height="162.4"/>
			<g>
				<g>
					<rect x="586.9" y="625.3" class="st15" width="25" height="12.5"/>
					<g>
						<path class="st15" d="M624.3,637.8c0-6.9-5.6-12.5-12.5-12.5c-6.9,0-12.5,5.6-12.5,12.5"/>
					</g>
					<path class="st15" d="M574.4,637.8c0-6.9,5.6-12.5,12.5-12.5c6.9,0,12.5,5.6,12.5,12.5"/>
				</g>
			</g>
			<g>
				<g>
					<rect x="536.9" y="625.3" class="st15" width="25" height="12.5"/>
					<g>
						<path class="st15" d="M574.4,637.8c0-6.9-5.6-12.5-12.5-12.5c-6.9,0-12.5,5.6-12.5,12.5"/>
					</g>
					<path class="st15" d="M524.4,637.8c0-6.9,5.6-12.5,12.5-12.5c6.9,0,12.5,5.6,12.5,12.5"/>
				</g>
			</g>
			<g>
				<rect x="524.4" y="612.8" class="st18" width="25" height="12.5"/>
				<g>
					<path class="st18" d="M561.9,625.3c0-6.9-5.6-12.5-12.5-12.5c-6.9,0-12.5,5.6-12.5,12.5"/>
				</g>
				<path class="st18" d="M511.9,625.3c0-6.9,5.6-12.5,12.5-12.5s12.5,5.6,12.5,12.5"/>
			</g>
			<g>
				<rect x="599.3" y="612.8" class="st18" width="25" height="12.5"/>
				<g>
					<path class="st18" d="M636.8,625.3c0-6.9-5.6-12.5-12.5-12.5c-6.9,0-12.5,5.6-12.5,12.5"/>
				</g>
				<path class="st18" d="M586.9,625.3c0-6.9,5.6-12.5,12.5-12.5c6.9,0,12.5,5.6,12.5,12.5"/>
			</g>
			<g>
				<path class="st19" d="M586.9,625.3c0-6.9-5.6-12.5-12.5-12.5c-6.9,0-12.5,5.6-12.5,12.5"/>
			</g>
			<path class="st19" d="M555.1,637.8c6.8,0,10.3,0,12.5,0c0,7,0,3,0,12.5C560.7,650.3,555.1,644.7,555.1,637.8z"/>
			<path class="st15" d="M555.1,662.8c0-6.8,0-10.3,0-12.5c7,0,3,0,12.5,0C567.6,657.2,562,662.8,555.1,662.8z"/>
			<path class="st15" d="M580.1,650.3c6.8,0,10.3,0,12.5,0c0,7,0,3,0,12.5C585.7,662.8,580.1,657.2,580.1,650.3z"/>
			<path class="st18" d="M605,650.3c-6.8,0-10.3,0-12.5,0c0-7,0-3,0-12.5C599.5,637.8,605,643.4,605,650.3z"/>
			<path class="st18" d="M555.1,637.8c0,6.8,0,10.3,0,12.5c-7,0-3,0-12.5,0C542.6,643.4,548.2,637.8,555.1,637.8z"/>
			<path class="st19" d="M592.5,637.8c-6.8,0-10.3,0-12.5,0c0,7,0,3,0,12.5C587,650.3,592.5,644.7,592.5,637.8z"/>
		</g>
		<g>
			<rect x="1700" y="649.7" class="st14" width="12.5" height="150.4"/>
			<g>
				<g>
					<rect x="1719.3" y="637.2" class="st15" width="25" height="12.5"/>
					<g>
						<path class="st15" d="M1756.8,649.7c0-6.9-5.6-12.5-12.5-12.5c-6.9,0-12.5,5.6-12.5,12.5"/>
					</g>
					<path class="st15" d="M1706.8,649.7c0-6.9,5.6-12.5,12.5-12.5c6.9,0,12.5,5.6,12.5,12.5"/>
				</g>
			</g>
			<g>
				<g>
					<rect x="1669.4" y="637.2" class="st15" width="25" height="12.5"/>
					<g>
						<path class="st15" d="M1706.8,649.7c0-6.9-5.6-12.5-12.5-12.5s-12.5,5.6-12.5,12.5"/>
					</g>
					<path class="st15" d="M1656.9,649.7c0-6.9,5.6-12.5,12.5-12.5c6.9,0,12.5,5.6,12.5,12.5"/>
				</g>
			</g>
			<g>
				<g>
					<rect x="1656.9" y="624.7" class="st16" width="25" height="12.5"/>
					<g>
						<path class="st16" d="M1694.3,637.2c0-6.9-5.6-12.5-12.5-12.5c-6.9,0-12.5,5.6-12.5,12.5"/>
					</g>
					<path class="st16" d="M1644.4,637.2c0-6.9,5.6-12.5,12.5-12.5s12.5,5.6,12.5,12.5"/>
				</g>
			</g>
			<g>
				<g>
					<rect x="1731.8" y="624.7" class="st16" width="25" height="12.5"/>
					<g>
						<path class="st16" d="M1769.3,637.2c0-6.9-5.6-12.5-12.5-12.5s-12.5,5.6-12.5,12.5"/>
					</g>
					<path class="st16" d="M1719.3,637.2c0-6.9,5.6-12.5,12.5-12.5c6.9,0,12.5,5.6,12.5,12.5"/>
				</g>
			</g>
			<g>
				<g>
					<path class="st17" d="M1719.3,637.2c0-6.9-5.6-12.5-12.5-12.5c-6.9,0-12.5,5.6-12.5,12.5"/>
				</g>
			</g>
			<path class="st17" d="M1687.5,649.7c6.8,0,10.3,0,12.5,0c0,7,0,3,0,12.5C1693.1,662.2,1687.5,656.6,1687.5,649.7z"/>
			<path class="st15" d="M1687.5,674.7c0-6.8,0-10.3,0-12.5c7,0,3,0,12.5,0C1700,669.1,1694.4,674.7,1687.5,674.7z"/>
			<path class="st15" d="M1712.5,662.2c6.8,0,10.3,0,12.5,0c0,7,0,3,0,12.5C1718.1,674.7,1712.5,669.1,1712.5,662.2z"/>
			<path class="st16" d="M1737.5,662.2c-6.8,0-10.3,0-12.5,0c0-7,0-3,0-12.5C1731.9,649.7,1737.5,655.3,1737.5,662.2z"/>
			<path class="st16" d="M1687.5,649.7c0,6.8,0,10.3,0,12.5c-7,0-3,0-12.5,0C1675,655.3,1680.6,649.7,1687.5,649.7z"/>
			<path class="st17" d="M1725,649.7c-6.8,0-10.3,0-12.5,0c0,7,0,3,0,12.5C1719.4,662.2,1725,656.6,1725,649.7z"/>
		</g>
		<g>
			<rect x="1125" y="651.1" class="st14" width="12.5" height="143.9"/>
			<g>
				<g>
					<rect x="1144.3" y="638.6" class="st15" width="25" height="12.5"/>
					<g>
						<path class="st15" d="M1181.8,651.1c0-6.9-5.6-12.5-12.5-12.5c-6.9,0-12.5,5.6-12.5,12.5"/>
					</g>
					<path class="st15" d="M1131.8,651.1c0-6.9,5.6-12.5,12.5-12.5c6.9,0,12.5,5.6,12.5,12.5"/>
				</g>
			</g>
			<g>
				<g>
					<rect x="1094.3" y="638.6" class="st15" width="25" height="12.5"/>
					<g>
						<path class="st15" d="M1131.8,651.1c0-6.9-5.6-12.5-12.5-12.5s-12.5,5.6-12.5,12.5"/>
					</g>
					<path class="st15" d="M1081.9,651.1c0-6.9,5.6-12.5,12.5-12.5c6.9,0,12.5,5.6,12.5,12.5"/>
				</g>
			</g>
			<g>
				<g>
					<rect x="1081.9" y="626.1" class="st16" width="25" height="12.5"/>
					<g>
						<path class="st16" d="M1119.3,638.6c0-6.9-5.6-12.5-12.5-12.5c-6.9,0-12.5,5.6-12.5,12.5"/>
					</g>
					<path class="st16" d="M1069.4,638.6c0-6.9,5.6-12.5,12.5-12.5s12.5,5.6,12.5,12.5"/>
				</g>
			</g>
			<g>
				<g>
					<rect x="1156.8" y="626.1" class="st16" width="25" height="12.5"/>
					<g>
						<path class="st16" d="M1194.3,638.6c0-6.9-5.6-12.5-12.5-12.5c-6.9,0-12.5,5.6-12.5,12.5"/>
					</g>
					<path class="st16" d="M1144.3,638.6c0-6.9,5.6-12.5,12.5-12.5c6.9,0,12.5,5.6,12.5,12.5"/>
				</g>
			</g>
			<g>
				<g>
					<path class="st17" d="M1144.3,638.6c0-6.9-5.6-12.5-12.5-12.5c-6.9,0-12.5,5.6-12.5,12.5"/>
				</g>
			</g>
			<path class="st17" d="M1112.5,651.1c6.8,0,10.3,0,12.5,0c0,7,0,3,0,12.5C1118.1,663.6,1112.5,658,1112.5,651.1z"/>
			<path class="st15" d="M1112.5,676.1c0-6.8,0-10.3,0-12.5c7,0,3,0,12.5,0C1125,670.5,1119.4,676.1,1112.5,676.1z"/>
			<path class="st15" d="M1137.5,663.6c6.8,0,10.3,0,12.5,0c0,7,0,3,0,12.5C1143.1,676.1,1137.5,670.5,1137.5,663.6z"/>
			<path class="st16" d="M1162.5,663.6c-6.8,0-10.3,0-12.5,0c0-7,0-3,0-12.5C1156.9,651.1,1162.5,656.7,1162.5,663.6z"/>
			<path class="st16" d="M1112.5,651.1c0,6.8,0,10.3,0,12.5c-7,0-3,0-12.5,0C1100,656.7,1105.6,651.1,1112.5,651.1z"/>
			<path class="st17" d="M1150,651.1c-6.8,0-10.3,0-12.5,0c0,7,0,3,0,12.5C1144.4,663.6,1150,658,1150,651.1z"/>
		</g>
		<g>
			<rect x="1837.5" y="649.7" class="st14" width="12.5" height="150.4"/>
			<g>
				<g>
					<rect x="1856.8" y="637.2" class="st15" width="25" height="12.5"/>
					<g>
						<path class="st15" d="M1894.3,649.7c0-6.9-5.6-12.5-12.5-12.5c-6.9,0-12.5,5.6-12.5,12.5"/>
					</g>
					<path class="st15" d="M1844.3,649.7c0-6.9,5.6-12.5,12.5-12.5c6.9,0,12.5,5.6,12.5,12.5"/>
				</g>
			</g>
			<g>
				<g>
					<rect x="1806.9" y="637.2" class="st15" width="25" height="12.5"/>
					<g>
						<path class="st15" d="M1844.3,649.7c0-6.9-5.6-12.5-12.5-12.5s-12.5,5.6-12.5,12.5"/>
					</g>
					<path class="st15" d="M1794.4,649.7c0-6.9,5.6-12.5,12.5-12.5c6.9,0,12.5,5.6,12.5,12.5"/>
				</g>
			</g>
			<g>
				<rect x="1794.4" y="624.7" class="st18" width="25" height="12.5"/>
				<g>
					<path class="st18" d="M1831.8,637.2c0-6.9-5.6-12.5-12.5-12.5c-6.9,0-12.5,5.6-12.5,12.5"/>
				</g>
				<path class="st18" d="M1781.9,637.2c0-6.9,5.6-12.5,12.5-12.5s12.5,5.6,12.5,12.5"/>
			</g>
			<g>
				<rect x="1869.3" y="624.7" class="st18" width="25" height="12.5"/>
				<g>
					<path class="st18" d="M1906.8,637.2c0-6.9-5.6-12.5-12.5-12.5s-12.5,5.6-12.5,12.5"/>
				</g>
				<path class="st18" d="M1856.8,637.2c0-6.9,5.6-12.5,12.5-12.5c6.9,0,12.5,5.6,12.5,12.5"/>
			</g>
			<g>
				<path class="st19" d="M1856.8,637.2c0-6.9-5.6-12.5-12.5-12.5c-6.9,0-12.5,5.6-12.5,12.5"/>
			</g>
			<path class="st19" d="M1825,649.7c6.8,0,10.3,0,12.5,0c0,7,0,3,0,12.5C1830.6,662.2,1825,656.6,1825,649.7z"/>
			<path class="st15" d="M1825,674.7c0-6.8,0-10.3,0-12.5c7,0,3,0,12.5,0C1837.5,669.1,1831.9,674.7,1825,674.7z"/>
			<path class="st15" d="M1850,662.2c6.8,0,10.3,0,12.5,0c0,7,0,3,0,12.5C1855.6,674.7,1850,669.1,1850,662.2z"/>
			<path class="st18" d="M1875,662.2c-6.8,0-10.3,0-12.5,0c0-7,0-3,0-12.5C1869.4,649.7,1875,655.3,1875,662.2z"/>
			<path class="st18" d="M1825,649.7c0,6.8,0,10.3,0,12.5c-7,0-3,0-12.5,0C1812.5,655.3,1818.1,649.7,1825,649.7z"/>
			<path class="st19" d="M1862.5,649.7c-6.8,0-10.3,0-12.5,0c0,7,0,3,0,12.5C1856.9,662.2,1862.5,656.6,1862.5,649.7z"/>
		</g>
		<g>
			<rect x="211.9" y="637.8" class="st14" width="12.5" height="150.4"/>
			<g>
				<g>
					<rect x="231.2" y="625.3" class="st15" width="25" height="12.5"/>
					<g>
						<path class="st15" d="M268.7,637.8c0-6.9-5.6-12.5-12.5-12.5c-6.9,0-12.5,5.6-12.5,12.5"/>
					</g>
					<path class="st15" d="M218.7,637.8c0-6.9,5.6-12.5,12.5-12.5c6.9,0,12.5,5.6,12.5,12.5"/>
				</g>
			</g>
			<g>
				<g>
					<rect x="181.3" y="625.3" class="st15" width="25" height="12.5"/>
					<g>
						<path class="st15" d="M218.7,637.8c0-6.9-5.6-12.5-12.5-12.5c-6.9,0-12.5,5.6-12.5,12.5"/>
					</g>
					<path class="st15" d="M168.8,637.8c0-6.9,5.6-12.5,12.5-12.5c6.9,0,12.5,5.6,12.5,12.5"/>
				</g>
			</g>
			<g>
				<g>
					<rect x="168.8" y="612.8" class="st16" width="25" height="12.5"/>
					<g>
						<path class="st16" d="M206.2,625.3c0-6.9-5.6-12.5-12.5-12.5c-6.9,0-12.5,5.6-12.5,12.5"/>
					</g>
					<path class="st16" d="M156.3,625.3c0-6.9,5.6-12.5,12.5-12.5c6.9,0,12.5,5.6,12.5,12.5"/>
				</g>
			</g>
			<g>
				<g>
					<rect x="243.7" y="612.8" class="st16" width="25" height="12.5"/>
					<g>
						<path class="st16" d="M281.2,625.3c0-6.9-5.6-12.5-12.5-12.5c-6.9,0-12.5,5.6-12.5,12.5"/>
					</g>
					<path class="st16" d="M231.2,625.3c0-6.9,5.6-12.5,12.5-12.5c6.9,0,12.5,5.6,12.5,12.5"/>
				</g>
			</g>
			<g>
				<g>
					<path class="st17" d="M231.2,625.3c0-6.9-5.6-12.5-12.5-12.5c-6.9,0-12.5,5.6-12.5,12.5"/>
				</g>
			</g>
			<path class="st17" d="M199.4,637.8c6.8,0,10.3,0,12.5,0c0,7,0,3,0,12.5C205,650.3,199.4,644.7,199.4,637.8z"/>
			<path class="st15" d="M199.4,662.8c0-6.8,0-10.3,0-12.5c7,0,3,0,12.5,0C211.9,657.2,206.3,662.8,199.4,662.8z"/>
			<path class="st15" d="M224.4,650.3c6.8,0,10.3,0,12.5,0c0,7,0,3,0,12.5C230,662.8,224.4,657.2,224.4,650.3z"/>
			<path class="st16" d="M249.4,650.3c-6.8,0-10.3,0-12.5,0c0-7,0-3,0-12.5C243.8,637.8,249.4,643.4,249.4,650.3z"/>
			<path class="st16" d="M199.4,637.8c0,6.8,0,10.3,0,12.5c-7,0-3,0-12.5,0C186.9,643.4,192.5,637.8,199.4,637.8z"/>
			<path class="st17" d="M236.9,637.8c-6.8,0-10.3,0-12.5,0c0,7,0,3,0,12.5C231.3,650.3,236.9,644.7,236.9,637.8z"/>
		</g>
		<g>
			<rect x="99.3" y="600.3" class="st14" width="12.5" height="187.4"/>
			<g>
				<g>
					<rect x="118.6" y="587.8" class="st15" width="25" height="12.5"/>
					<g>
						<path class="st15" d="M156.1,600.3c0-6.9-5.6-12.5-12.5-12.5c-6.9,0-12.5,5.6-12.5,12.5"/>
					</g>
					<path class="st15" d="M106.1,600.3c0-6.9,5.6-12.5,12.5-12.5c6.9,0,12.5,5.6,12.5,12.5"/>
				</g>
			</g>
			<g>
				<g>
					<rect x="68.7" y="587.8" class="st15" width="25" height="12.5"/>
					<g>
						<path class="st15" d="M106.1,600.3c0-6.9-5.6-12.5-12.5-12.5c-6.9,0-12.5,5.6-12.5,12.5"/>
					</g>
					<path class="st15" d="M56.2,600.3c0-6.9,5.6-12.5,12.5-12.5c6.9,0,12.5,5.6,12.5,12.5"/>
				</g>
			</g>
			<g>
				<rect x="56.2" y="575.3" class="st18" width="25" height="12.5"/>
				<g>
					<path class="st18" d="M93.6,587.8c0-6.9-5.6-12.5-12.5-12.5c-6.9,0-12.5,5.6-12.5,12.5"/>
				</g>
				<path class="st18" d="M43.7,587.8c0-6.9,5.6-12.5,12.5-12.5c6.9,0,12.5,5.6,12.5,12.5"/>
			</g>
			<g>
				<rect x="131.1" y="575.3" class="st18" width="25" height="12.5"/>
				<g>
					<path class="st18" d="M168.6,587.8c0-6.9-5.6-12.5-12.5-12.5c-6.9,0-12.5,5.6-12.5,12.5"/>
				</g>
				<path class="st18" d="M118.6,587.8c0-6.9,5.6-12.5,12.5-12.5c6.9,0,12.5,5.6,12.5,12.5"/>
			</g>
			<g>
				<path class="st19" d="M118.6,587.8c0-6.9-5.6-12.5-12.5-12.5c-6.9,0-12.5,5.6-12.5,12.5"/>
			</g>
			<path class="st19" d="M86.8,600.3c6.8,0,10.3,0,12.5,0c0,7,0,3,0,12.5C92.4,612.8,86.8,607.2,86.8,600.3z"/>
			<path class="st15" d="M86.8,625.3c0-6.8,0-10.3,0-12.5c7,0,3,0,12.5,0C99.3,619.7,93.7,625.3,86.8,625.3z"/>
			<path class="st15" d="M111.8,612.8c6.8,0,10.3,0,12.5,0c0,7,0,3,0,12.5C117.4,625.3,111.8,619.7,111.8,612.8z"/>
			<path class="st18" d="M136.8,612.8c-6.8,0-10.3,0-12.5,0c0-7,0-3,0-12.5C131.2,600.3,136.8,605.9,136.8,612.8z"/>
			<path class="st18" d="M86.8,600.3c0,6.8,0,10.3,0,12.5c-7,0-3,0-12.5,0C74.3,605.9,79.9,600.3,86.8,600.3z"/>
			<path class="st19" d="M124.3,600.3c-6.8,0-10.3,0-12.5,0c0,7,0,3,0,12.5C118.7,612.8,124.3,607.2,124.3,600.3z"/>
		</g>
	</g>
	<g id="Binh-nuoc">
		<polygon class="st20" points="458.9,787.5 370.5,787.8 333,600.4 495.7,600.4 		"/>
		<polygon class="st21" points="458.9,787.5 370.5,787.8 333,600.4 495.7,600.4 		"/>
		<g>
			<path class="st7" d="M385.1,553.8c0,27.5-22.3,49.8-49.8,49.8s-49.8-22.3-49.8-49.8"/>
			<path class="st7" d="M543.3,553.8c0,27.5-22.3,49.8-49.8,49.8s-49.8-22.3-49.8-49.8"/>
			<rect x="335.3" y="553.8" class="st7" width="158.2" height="49.8"/>
		</g>
		<polygon class="st7" points="342.8,650 485.8,650 488.2,637.5 340.5,637.5 		"/>
	</g>
	<g id="cot-du-quay">
		<g>
			<rect x="1325" y="512.1" class="st2" width="12.5" height="288.1"/>
			<rect x="1362.5" y="512.1" class="st2" width="12.5" height="288.1"/>
			<rect x="1325" y="510.9" class="st2" width="50" height="12.5"/>
			<g>
				<path class="st2" d="M1324.7,511.3c0-13.8,11.2-25,25-25c13.8,0,25,11.2,25,25c0,13.8-11.2,25-25,25
					C1335.9,536.3,1324.7,525.1,1324.7,511.3z"/>
			</g>
		</g>
	</g>
	
	<rect id="dat" x="-0.1" y="787.6" class="st22" width="1920" height="12.5"/>
	<g id="cay-cau">
		<g>
			<rect x="62.4" y="737.5" class="st23" width="12.5" height="50"/>
			<g>
				<g>
					<g>
						<rect x="56.1" y="725" class="st22" width="25" height="12.5"/>
					</g>
					<g>
						<g>
							<path class="st22" d="M43.6,725c0,6.9,5.6,12.5,12.5,12.5c6.9,0,12.5-5.6,12.5-12.5"/>
						</g>
					</g>
					<g>
						<path class="st22" d="M93.6,725c0,6.9-5.6,12.5-12.5,12.5c-6.9,0-12.5-5.6-12.5-12.5"/>
					</g>
				</g>
			</g>
			<g>
				<g>
					<rect x="31.2" y="775" class="st16" width="25" height="12.5"/>
					<g>
						<path class="st16" d="M68.7,787.5c0-6.9-5.6-12.5-12.5-12.5c-6.9,0-12.5,5.6-12.5,12.5"/>
					</g>
					<path class="st16" d="M18.7,787.5c0-6.9,5.6-12.5,12.5-12.5c6.9,0,12.5,5.6,12.5,12.5"/>
				</g>
				<g>
					<rect x="81.1" y="775" class="st16" width="25" height="12.5"/>
					<g>
						<path class="st16" d="M118.6,787.5c0-6.9-5.6-12.5-12.5-12.5c-6.9,0-12.5,5.6-12.5,12.5"/>
					</g>
					<path class="st16" d="M68.6,787.5c0-6.9,5.6-12.5,12.5-12.5c6.9,0,12.5,5.6,12.5,12.5"/>
				</g>
			</g>
		</g>
		<g>
			<rect x="199.8" y="737.5" class="st23" width="12.5" height="50"/>
			<g>
				<g>
					<g>
						<rect x="193.6" y="725" class="st22" width="25" height="12.5"/>
					</g>
					<g>
						<g>
							<path class="st22" d="M181.1,725c0,6.9,5.6,12.5,12.5,12.5c6.9,0,12.5-5.6,12.5-12.5"/>
						</g>
					</g>
					<g>
						<path class="st22" d="M231.1,725c0,6.9-5.6,12.5-12.5,12.5c-6.9,0-12.5-5.6-12.5-12.5"/>
					</g>
				</g>
			</g>
			<g>
				<g>
					<rect x="168.6" y="775" class="st16" width="25" height="12.5"/>
					<g>
						<path class="st16" d="M206.1,787.5c0-6.9-5.6-12.5-12.5-12.5c-6.9,0-12.5,5.6-12.5,12.5"/>
					</g>
					<path class="st16" d="M156.1,787.5c0-6.9,5.6-12.5,12.5-12.5c6.9,0,12.5,5.6,12.5,12.5"/>
				</g>
				<g>
					<rect x="218.5" y="775" class="st16" width="25" height="12.5"/>
					<g>
						<path class="st16" d="M256,787.5c0-6.9-5.6-12.5-12.5-12.5c-6.9,0-12.5,5.6-12.5,12.5"/>
					</g>
					<path class="st16" d="M206,787.5c0-6.9,5.6-12.5,12.5-12.5s12.5,5.6,12.5,12.5"/>
				</g>
			</g>
		</g>
		<g>
			<rect x="612.2" y="737.5" class="st23" width="12.5" height="50"/>
			<g>
				<g>
					<g>
						<rect x="605.9" y="725" class="st22" width="25" height="12.5"/>
					</g>
					<g>
						<g>
							<path class="st22" d="M593.4,725c0,6.9,5.6,12.5,12.5,12.5c6.9,0,12.5-5.6,12.5-12.5"/>
						</g>
					</g>
					<g>
						<path class="st22" d="M643.4,725c0,6.9-5.6,12.5-12.5,12.5c-6.9,0-12.5-5.6-12.5-12.5"/>
					</g>
				</g>
			</g>
			<g>
				<g>
					<rect x="581" y="775" class="st16" width="25" height="12.5"/>
					<g>
						<path class="st16" d="M618.5,787.5c0-6.9-5.6-12.5-12.5-12.5c-6.9,0-12.5,5.6-12.5,12.5"/>
					</g>
					<path class="st16" d="M568.5,787.5c0-6.9,5.6-12.5,12.5-12.5c6.9,0,12.5,5.6,12.5,12.5"/>
				</g>
				<g>
					<rect x="630.9" y="775" class="st16" width="25" height="12.5"/>
					<g>
						<path class="st16" d="M668.4,787.5c0-6.9-5.6-12.5-12.5-12.5c-6.9,0-12.5,5.6-12.5,12.5"/>
					</g>
					<path class="st16" d="M618.4,787.5c0-6.9,5.6-12.5,12.5-12.5c6.9,0,12.5,5.6,12.5,12.5"/>
				</g>
			</g>
		</g>
		<g>
			<rect x="749.6" y="737.5" class="st23" width="12.5" height="50"/>
			<g>
				<g>
					<g>
						<rect x="743.4" y="725" class="st22" width="25" height="12.5"/>
					</g>
					<g>
						<g>
							<path class="st22" d="M730.9,725c0,6.9,5.6,12.5,12.5,12.5c6.9,0,12.5-5.6,12.5-12.5"/>
						</g>
					</g>
					<g>
						<path class="st22" d="M780.9,725c0,6.9-5.6,12.5-12.5,12.5c-6.9,0-12.5-5.6-12.5-12.5"/>
					</g>
				</g>
			</g>
			
			<g>
				<g>
					<rect x="718.4" y="775" class="st16" width="25" height="12.5"/>
					<g>
						<path class="st16" d="M755.9,787.5c0-6.9-5.6-12.5-12.5-12.5c-6.9,0-12.5,5.6-12.5,12.5"/>
					</g>
					<path class="st16" d="M705.9,787.5c0-6.9,5.6-12.5,12.5-12.5c6.9,0,12.5,5.6,12.5,12.5"/>
				</g>
				<g>
					<rect x="768.4" y="775" class="st16" width="25" height="12.5"/>
					<g>
						<path class="st16" d="M805.9,787.5c0-6.9-5.6-12.5-12.5-12.5c-6.9,0-12.5,5.6-12.5,12.5"/>
					</g>
					<path class="st16" d="M755.9,787.5c0-6.9,5.6-12.5,12.5-12.5c6.9,0,12.5,5.6,12.5,12.5"/>
				</g>
			</g>
		</g>
		<g>
			<rect x="887.1" y="737.5" class="st23" width="12.5" height="50"/>
			<g>
				<g>
					<g>
						<rect x="880.9" y="725" class="st22" width="25" height="12.5"/>
					</g>
					<g>
						<g>
							<path class="st22" d="M868.4,725c0,6.9,5.6,12.5,12.5,12.5c6.9,0,12.5-5.6,12.5-12.5"/>
						</g>
					</g>
					<g>
						<path class="st22" d="M918.4,725c0,6.9-5.6,12.5-12.5,12.5c-6.9,0-12.5-5.6-12.5-12.5"/>
					</g>
				</g>
			</g>
			<g>
				<g>
					<rect x="855.9" y="775" class="st16" width="25" height="12.5"/>
					<g>
						<path class="st16" d="M893.4,787.5c0-6.9-5.6-12.5-12.5-12.5c-6.9,0-12.5,5.6-12.5,12.5"/>
					</g>
					<path class="st16" d="M843.4,787.5c0-6.9,5.6-12.5,12.5-12.5c6.9,0,12.5,5.6,12.5,12.5"/>
				</g>
				<g>
					<rect x="905.8" y="775" class="st16" width="25" height="12.5"/>
					<g>
						<path class="st16" d="M943.3,787.5c0-6.9-5.6-12.5-12.5-12.5c-6.9,0-12.5,5.6-12.5,12.5"/>
					</g>
					<path class="st16" d="M893.3,787.5c0-6.9,5.6-12.5,12.5-12.5c6.9,0,12.5,5.6,12.5,12.5"/>
				</g>
			</g>
		</g>
		<g>
			<rect x="1024.6" y="737.5" class="st23" width="12.5" height="50"/>
			<g>
				<g>
					<g>
						<rect x="1018.3" y="725" class="st22" width="25" height="12.5"/>
					</g>
					<g>
						<g>
							<path class="st22" d="M1005.8,725c0,6.9,5.6,12.5,12.5,12.5s12.5-5.6,12.5-12.5"/>
						</g>
					</g>
					<g>
						<path class="st22" d="M1055.8,725c0,6.9-5.6,12.5-12.5,12.5s-12.5-5.6-12.5-12.5"/>
					</g>
				</g>
			</g>
			<g>
				<g>
					<rect x="993.4" y="775" class="st16" width="25" height="12.5"/>
					<g>
						<path class="st16" d="M1030.9,787.5c0-6.9-5.6-12.5-12.5-12.5c-6.9,0-12.5,5.6-12.5,12.5"/>
					</g>
					<path class="st16" d="M980.9,787.5c0-6.9,5.6-12.5,12.5-12.5c6.9,0,12.5,5.6,12.5,12.5"/>
				</g>
				<g>
					<rect x="1043.3" y="775" class="st16" width="25" height="12.5"/>
					<g>
						<path class="st16" d="M1080.8,787.5c0-6.9-5.6-12.5-12.5-12.5c-6.9,0-12.5,5.6-12.5,12.5"/>
					</g>
					<path class="st16" d="M1030.8,787.5c0-6.9,5.6-12.5,12.5-12.5s12.5,5.6,12.5,12.5"/>
				</g>
			</g>
		</g>
		<g>
			<rect x="1162" y="737.5" class="st23" width="12.5" height="50"/>
			<g>
				<g>
					<g>
						<rect x="1155.8" y="725" class="st22" width="25" height="12.5"/>
					</g>
					<g>
						<g>
							<path class="st22" d="M1143.3,725c0,6.9,5.6,12.5,12.5,12.5s12.5-5.6,12.5-12.5"/>
						</g>
					</g>
					<g>
						<path class="st22" d="M1193.3,725c0,6.9-5.6,12.5-12.5,12.5s-12.5-5.6-12.5-12.5"/>
					</g>
				</g>
			</g>
			<g>
				<g>
					<rect x="1130.8" y="775" class="st16" width="25" height="12.5"/>
					<g>
						<path class="st16" d="M1168.3,787.5c0-6.9-5.6-12.5-12.5-12.5s-12.5,5.6-12.5,12.5"/>
					</g>
					<path class="st16" d="M1118.3,787.5c0-6.9,5.6-12.5,12.5-12.5s12.5,5.6,12.5,12.5"/>
				</g>
				<g>
					<rect x="1180.7" y="775" class="st16" width="25" height="12.5"/>
					<g>
						<path class="st16" d="M1218.2,787.5c0-6.9-5.6-12.5-12.5-12.5c-6.9,0-12.5,5.6-12.5,12.5"/>
					</g>
					<path class="st16" d="M1168.2,787.5c0-6.9,5.6-12.5,12.5-12.5s12.5,5.6,12.5,12.5"/>
				</g>
			</g>
		</g>
		<g>
			<rect x="1436.9" y="737.5" class="st23" width="12.5" height="50"/>
			<g>
				<g>
					<g>
						<rect x="1430.7" y="725" class="st22" width="25" height="12.5"/>
					</g>
					<g>
						<g>
							<path class="st22" d="M1418.2,725c0,6.9,5.6,12.5,12.5,12.5s12.5-5.6,12.5-12.5"/>
						</g>
					</g>
					<g>
						<path class="st22" d="M1468.2,725c0,6.9-5.6,12.5-12.5,12.5s-12.5-5.6-12.5-12.5"/>
					</g>
				</g>
			</g>
			<g>
				<g>
					<rect x="1405.7" y="775" class="st16" width="25" height="12.5"/>
					<g>
						<path class="st16" d="M1443.2,787.5c0-6.9-5.6-12.5-12.5-12.5s-12.5,5.6-12.5,12.5"/>
					</g>
					<path class="st16" d="M1393.2,787.5c0-6.9,5.6-12.5,12.5-12.5s12.5,5.6,12.5,12.5"/>
				</g>
				<g>
					<rect x="1455.6" y="775" class="st16" width="25" height="12.5"/>
					<g>
						<path class="st16" d="M1493.1,787.5c0-6.9-5.6-12.5-12.5-12.5c-6.9,0-12.5,5.6-12.5,12.5"/>
					</g>
					<path class="st16" d="M1443.1,787.5c0-6.9,5.6-12.5,12.5-12.5s12.5,5.6,12.5,12.5"/>
				</g>
			</g>
		</g>
		<g>
			<rect x="1574.4" y="737.5" class="st23" width="12.5" height="50"/>
			<g>
				<g>
					<g>
						<rect x="1568.1" y="725" class="st22" width="25" height="12.5"/>
					</g>
					<g>
						<g>
							<path class="st22" d="M1555.6,725c0,6.9,5.6,12.5,12.5,12.5s12.5-5.6,12.5-12.5"/>
						</g>
					</g>
					<g>
						<path class="st22" d="M1605.6,725c0,6.9-5.6,12.5-12.5,12.5c-6.9,0-12.5-5.6-12.5-12.5"/>
					</g>
				</g>
			</g>
			<g>
				<g>
					<rect x="1543.2" y="775" class="st16" width="25" height="12.5"/>
					<g>
						<path class="st16" d="M1580.7,787.5c0-6.9-5.6-12.5-12.5-12.5s-12.5,5.6-12.5,12.5"/>
					</g>
					<path class="st16" d="M1530.7,787.5c0-6.9,5.6-12.5,12.5-12.5s12.5,5.6,12.5,12.5"/>
				</g>
				<g>
					<rect x="1593.1" y="775" class="st16" width="25" height="12.5"/>
					<g>
						<path class="st16" d="M1630.6,787.5c0-6.9-5.6-12.5-12.5-12.5c-6.9,0-12.5,5.6-12.5,12.5"/>
					</g>
					<path class="st16" d="M1580.6,787.5c0-6.9,5.6-12.5,12.5-12.5s12.5,5.6,12.5,12.5"/>
				</g>
			</g>
		</g>
		<g>
			<rect x="1711.8" y="737.5" class="st23" width="12.5" height="50"/>
			<g>
				<g>
					<g>
						<rect x="1705.6" y="725" class="st22" width="25" height="12.5"/>
					</g>
					<g>
						<g>
							<path class="st22" d="M1693.1,725c0,6.9,5.6,12.5,12.5,12.5c6.9,0,12.5-5.6,12.5-12.5"/>
						</g>
					</g>
					<g>
						<path class="st22" d="M1743.1,725c0,6.9-5.6,12.5-12.5,12.5s-12.5-5.6-12.5-12.5"/>
					</g>
				</g>
			</g>
			<g>
				<g>
					<rect x="1680.6" y="775" class="st16" width="25" height="12.5"/>
					<g>
						<path class="st16" d="M1718.1,787.5c0-6.9-5.6-12.5-12.5-12.5s-12.5,5.6-12.5,12.5"/>
					</g>
					<path class="st16" d="M1668.1,787.5c0-6.9,5.6-12.5,12.5-12.5s12.5,5.6,12.5,12.5"/>
				</g>
				<g>
					<rect x="1730.5" y="775" class="st16" width="25" height="12.5"/>
					<g>
						<path class="st16" d="M1768,787.5c0-6.9-5.6-12.5-12.5-12.5c-6.9,0-12.5,5.6-12.5,12.5"/>
					</g>
					<path class="st16" d="M1718,787.5c0-6.9,5.6-12.5,12.5-12.5s12.5,5.6,12.5,12.5"/>
				</g>
			</g>
		</g>
		<g>
			<rect x="1849.3" y="737.5" class="st23" width="12.5" height="50"/>
			<g>
				<g>
					<g>
						<rect x="1843" y="725" class="st22" width="25" height="12.5"/>
					</g>
					<g>
						<g>
							<path class="st22" d="M1830.5,725c0,6.9,5.6,12.5,12.5,12.5s12.5-5.6,12.5-12.5"/>
						</g>
					</g>
					<g>
						<path class="st22" d="M1880.5,725c0,6.9-5.6,12.5-12.5,12.5c-6.9,0-12.5-5.6-12.5-12.5"/>
					</g>
				</g>
			</g>
			<g>
				<g>
					<rect x="1818.1" y="775" class="st16" width="25" height="12.5"/>
					<g>
						<path class="st16" d="M1855.6,787.5c0-6.9-5.6-12.5-12.5-12.5s-12.5,5.6-12.5,12.5"/>
					</g>
					<path class="st16" d="M1805.6,787.5c0-6.9,5.6-12.5,12.5-12.5s12.5,5.6,12.5,12.5"/>
				</g>
				<g>
					<rect x="1868" y="775" class="st16" width="25" height="12.5"/>
					<g>
						<path class="st16" d="M1905.5,787.5c0-6.9-5.6-12.5-12.5-12.5c-6.9,0-12.5,5.6-12.5,12.5"/>
					</g>
					<path class="st16" d="M1855.5,787.5c0-6.9,5.6-12.5,12.5-12.5s12.5,5.6,12.5,12.5"/>
				</g>
			</g>
		</g>
		<circle class="st24" cx="43.8" cy="768.8" r="6.3"/>
		<circle class="st24" cx="93.6" cy="768.8" r="6.3"/>
		<circle class="st24" cx="181.3" cy="768.8" r="6.3"/>
		<circle class="st24" cx="231.1" cy="768.8" r="6.3"/>
		<circle class="st24" cx="318.8" cy="768.8" r="6.3"/>
		<circle class="st24" cx="506.1" cy="768.8" r="6.3"/>
		<circle class="st24" cx="593.8" cy="768.8" r="6.3"/>
		<circle class="st24" cx="643.6" cy="768.8" r="6.3"/>
		<circle class="st24" cx="731.3" cy="768.8" r="6.3"/>
		<circle class="st24" cx="781.1" cy="768.8" r="6.3"/>
		<circle class="st24" cx="868.8" cy="768.8" r="6.3"/>
		<circle class="st24" cx="918.6" cy="768.8" r="6.3"/>
		<circle class="st24" cx="1006.2" cy="768.8" r="6.3"/>
		<circle class="st24" cx="1056.1" cy="768.8" r="6.3"/>
		<circle class="st24" cx="1143.7" cy="768.8" r="6.3"/>
		<circle class="st24" cx="1193.6" cy="768.8" r="6.3"/>
		<circle class="st24" cx="1281.2" cy="768.8" r="6.3"/>
		<circle class="st24" cx="1418.7" cy="768.8" r="6.3"/>
		<circle class="st24" cx="1468.6" cy="768.8" r="6.3"/>
		<circle class="st24" cx="1556.2" cy="768.8" r="6.3"/>
		<circle class="st24" cx="1606.1" cy="768.8" r="6.3"/>
		<circle class="st24" cx="1693.7" cy="768.8" r="6.3"/>
		<circle class="st24" cx="1743.6" cy="768.8" r="6.3"/>
		<circle class="st24" cx="1831.2" cy="768.8" r="6.3"/>
		<circle class="st24" cx="1881.1" cy="768.8" r="6.3"/>
		<circle class="st24" cx="456.3" cy="768.8" r="6.3"/>
		<circle class="st24" cx="368.6" cy="768.8" r="6.3"/>
		<rect x="-0.1" y="718.8" class="st25" width="1920" height="6.3"/>
		<g>
			<rect x="474.7" y="737.5" class="st23" width="12.5" height="50"/>
			<g>
				<g>
					<g>
						<rect x="468.5" y="725" class="st22" width="25" height="12.5"/>
					</g>
					<g>
						<g>
							<path class="st22" d="M456,725c0,6.9,5.6,12.5,12.5,12.5c6.9,0,12.5-5.6,12.5-12.5"/>
						</g>
					</g>
					<g>
						<path class="st22" d="M506,725c0,6.9-5.6,12.5-12.5,12.5c-6.9,0-12.5-5.6-12.5-12.5"/>
					</g>
				</g>
			</g>
			<g>
				<g>
					<rect x="443.5" y="775" class="st16" width="25" height="12.5"/>
					<g>
						<path class="st16" d="M481,787.5c0-6.9-5.6-12.5-12.5-12.5c-6.9,0-12.5,5.6-12.5,12.5"/>
					</g>
					<path class="st16" d="M431,787.5c0-6.9,5.6-12.5,12.5-12.5s12.5,5.6,12.5,12.5"/>
				</g>
				<g>
					<rect x="493.4" y="775" class="st16" width="25" height="12.5"/>
					<g>
						<path class="st16" d="M530.9,787.5c0-6.9-5.6-12.5-12.5-12.5c-6.9,0-12.5,5.6-12.5,12.5"/>
					</g>
					<path class="st16" d="M480.9,787.5c0-6.9,5.6-12.5,12.5-12.5s12.5,5.6,12.5,12.5"/>
				</g>
			</g>
		</g>
		<g>
			<rect x="337.3" y="737.5" class="st23" width="12.5" height="50"/>
			<g>
				<g>
					<g>
						<rect x="331" y="725" class="st22" width="25" height="12.5"/>
					</g>
					<g>
						<g>
							<path class="st22" d="M318.5,725c0,6.9,5.6,12.5,12.5,12.5c6.9,0,12.5-5.6,12.5-12.5"/>
						</g>
					</g>
					<g>
						<path class="st22" d="M368.5,725c0,6.9-5.6,12.5-12.5,12.5c-6.9,0-12.5-5.6-12.5-12.5"/>
					</g>
				</g>
			</g>
			<g>
				<g>
					<rect x="306.1" y="775" class="st16" width="25" height="12.5"/>
					<g>
						<path class="st16" d="M343.6,787.5c0-6.9-5.6-12.5-12.5-12.5c-6.9,0-12.5,5.6-12.5,12.5"/>
					</g>
					<path class="st16" d="M293.6,787.5c0-6.9,5.6-12.5,12.5-12.5c6.9,0,12.5,5.6,12.5,12.5"/>
				</g>
				<g>
					<rect x="356" y="775" class="st16" width="25" height="12.5"/>
					<g>
						<path class="st16" d="M393.5,787.5c0-6.9-5.6-12.5-12.5-12.5c-6.9,0-12.5,5.6-12.5,12.5"/>
					</g>
					<path class="st16" d="M343.5,787.5c0-6.9,5.6-12.5,12.5-12.5c6.9,0,12.5,5.6,12.5,12.5"/>
				</g>
			</g>
		</g>
		<g>
			<rect x="1299.5" y="737.5" class="st23" width="12.5" height="50"/>
			<g>
				<g>
					<g>
						<rect x="1293.2" y="725" class="st22" width="25" height="12.5"/>
					</g>
					<g>
						<g>
							<path class="st22" d="M1280.7,725c0,6.9,5.6,12.5,12.5,12.5s12.5-5.6,12.5-12.5"/>
						</g>
					</g>
					<g>
						<path class="st22" d="M1330.7,725c0,6.9-5.6,12.5-12.5,12.5s-12.5-5.6-12.5-12.5"/>
					</g>
				</g>
			</g>
			<g>
				<g>
					<rect x="1268.3" y="775" class="st16" width="25" height="12.5"/>
					<g>
						<path class="st16" d="M1305.8,787.5c0-6.9-5.6-12.5-12.5-12.5s-12.5,5.6-12.5,12.5"/>
					</g>
					<path class="st16" d="M1255.8,787.5c0-6.9,5.6-12.5,12.5-12.5s12.5,5.6,12.5,12.5"/>
				</g>
				<g>
					<rect x="1318.2" y="775" class="st16" width="25" height="12.5"/>
					<g>
						<path class="st16" d="M1355.7,787.5c0-6.9-5.6-12.5-12.5-12.5c-6.9,0-12.5,5.6-12.5,12.5"/>
					</g>
					<path class="st16" d="M1305.7,787.5c0-6.9,5.6-12.5,12.5-12.5s12.5,5.6,12.5,12.5"/>
				</g>
			</g>
		</g>
		<circle class="st24" cx="1331.1" cy="768.8" r="6.3"/>
	</g>
</g>


<g id="Du-quay" class="siva">
	<g>
		<g>
			<g>
				<path class="st4" d="M1349.5,350.2c43,0,83.3,16.7,113.7,47.1c30.4,30.4,47.1,70.8,47.1,113.7c0,43-16.7,83.3-47.1,113.7
					c-30.4,30.4-70.8,47.1-113.7,47.1c-43,0-83.3-16.7-113.7-47.1c-30.4-30.4-47.1-70.8-47.1-113.7c0-43,16.7-83.3,47.1-113.7
					C1266.2,367,1306.5,350.2,1349.5,350.2 M1349.5,342.2c-93.2,0-168.8,75.6-168.8,168.8c0,93.2,75.6,168.8,168.8,168.8
					c93.2,0,168.8-75.6,168.8-168.8C1518.3,417.8,1442.7,342.2,1349.5,342.2L1349.5,342.2z"/>
			</g>
		</g>
		<circle class="st31" cx="1512" cy="511.1" r="12.5"/>
		<path class="st43" d="M1520.9,519.7c-7-7,0,0-8.7-8.7c2.2-2.2,4.3-4.3,8.7-8.7C1525.7,507.2,1525.7,514.9,1520.9,519.7z"/>
		<circle class="st28" cx="1187.1" cy="511.1" r="17.5"/>
		<circle class="st29" cx="1349.6" cy="348.9" r="12.5"/>
		<circle class="st34" cx="1349.5" cy="673.8" r="20"/>
		<circle class="st33" cx="1234.6" cy="396.2" r="15"/>
		<path class="st44" d="M1245.2,385.6c-8.6,8.6,0,0-10.6,10.6c-2.7-2.7-5.3-5.3-10.6-10.6C1229.8,379.7,1239.3,379.7,1245.2,385.6z"
			/>
		<circle class="st26" cx="1464.4" cy="396.2" r="20"/>
		<path class="st45" d="M1450.3,410.3c11.4-11.4,0,0,14.1-14.1c3.5,3.5,7.1,7.1,14.1,14.1C1470.7,418.1,1458.1,418.1,1450.3,410.3z"
			/>
		<circle class="st30" cx="1234.6" cy="626" r="12.5"/>
		<circle class="st32" cx="1466.3" cy="627.2" r="17.5"/>
		<path class="st46" d="M1340.7,340.3c7,7,0,0,8.7,8.7c-2.2,2.2-4.3,4.3-8.7,8.7C1335.9,352.8,1335.9,345,1340.7,340.3z"/>
		<path class="st47" d="M1478.6,614.8c-10,10,0,0-12.4,12.4c-3.1-3.1-6.2-6.2-12.4-12.4C1460.7,608,1471.8,608,1478.6,614.8z"/>
		<path class="st48" d="M1335.4,659.7c11.4,11.4,0,0,14.1,14.1c-3.5,3.5-7.1,7.1-14.1,14.1C1327.5,680.1,1327.5,667.5,1335.4,659.7z
			"/>
		<path class="st49" d="M1225.8,634.8c7.1-7.1,0,0,8.8-8.8c2.2,2.2,4.4,4.4,8.8,8.8C1238.6,639.7,1230.6,639.7,1225.8,634.8z"/>
		<path class="st50" d="M1199.5,523.4c-10-10,0,0-12.4-12.4c3.1-3.1,6.2-6.2,12.4-12.4C1206.3,505.5,1206.3,516.6,1199.5,523.4z"/>
	</g>
</g>
<g >
	<g class="DM__Metro">
		<g >
			<rect x="274.5" y="675" class="st35" width="125" height="37.5"/>
			<rect x="274.5" y="693.7" class="st36" width="125" height="6.3"/>
			<rect x="274.5" y="675" class="st36" width="125" height="12.5"/>
		</g>
		<g>
			<rect x="537" y="675" class="st35" width="125" height="37.5"/>
			<rect x="537" y="693.7" class="st36" width="125" height="6.3"/>
			<rect x="537" y="675" class="st36" width="125" height="12.5"/>
		</g>
		<g>
			<rect x="668.2" y="675" class="st35" width="125" height="37.5"/>
			<rect x="668.2" y="693.7" class="st36" width="125" height="6.3"/>
			<rect x="668.2" y="675" class="st36" width="125" height="12.5"/>
		</g>
		<g>
			<rect x="799.5" y="675" class="st35" width="125" height="37.5"/>
			<rect x="799.5" y="693.7" class="st36" width="125" height="6.3"/>
			<rect x="799.5" y="675" class="st36" width="125" height="12.5"/>
		</g>
		<g>
			<path class="st35" d="M180.6,675h87.5v37.5h-50C218.1,691.8,201.3,675,180.6,675z"/>
			<path class="st36" d="M143.1,712.5c0-5.1,1-10,2.9-14.4c3,1.2,6.2,1.9,9.6,1.9L143.1,712.5z"/>
			<path class="st37" d="M180.6,675c20.7,0,37.5,16.8,37.5,37.5h-75l12.5-12.5C169.4,700,180.6,688.8,180.6,675z"/>
			<path class="st38" d="M180.6,675l-25,25c-3.4,0-6.7-0.7-9.6-1.9C151.6,684.5,165,675,180.6,675z"/>
			<path class="st38" d="M155.6,700l25-25C180.6,688.8,169.4,700,155.6,700z"/>
			<rect x="193.1" y="693.7" class="st39" width="75" height="6.3"/>
			<rect x="176.9" y="675" class="st36" width="91.2" height="12.5"/>
			<path class="st40" d="M193.1,687.5c-6.9,0-12.5,5.6-12.5,12.5c0,6.9,5.6,12.5,12.5,12.5"/>
			<path class="st41" d="M180.6,675l-25,25c-3.4,0-6.7-0.7-9.6-1.9C151.6,684.5,165,675,180.6,675z"/>
			<path class="st42" d="M155.6,700l25-25C180.6,688.8,169.4,700,155.6,700z"/>
		</g>
		<g>
			<path class="st35" d="M1018.1,675h-87.5v37.5h50C980.6,691.8,997.4,675,1018.1,675z"/>
			<path class="st36" d="M1055.6,712.5c0-5.1-1-10-2.9-14.4c-3,1.2-6.2,1.9-9.6,1.9L1055.6,712.5z"/>
			<path class="st37" d="M1018.1,675c-20.7,0-37.5,16.8-37.5,37.5h75l-12.5-12.5C1029.3,700,1018.1,688.8,1018.1,675z"/>
			<path class="st38" d="M1018.1,675l25,25c3.4,0,6.7-0.7,9.6-1.9C1047.1,684.5,1033.7,675,1018.1,675z"/>
			<path class="st38" d="M1043.1,700l-25-25C1018.1,688.8,1029.3,700,1043.1,700z"/>
			<rect x="930.6" y="693.7" class="st39" width="75" height="6.3"/>
			<rect x="930.6" y="675" class="st36" width="91.2" height="12.5"/>
			<path class="st40" d="M1005.6,687.5c6.9,0,12.5,5.6,12.5,12.5c0,6.9-5.6,12.5-12.5,12.5"/>
			<path class="st41" d="M1018.1,675l25,25c3.4,0,6.7-0.7,9.6-1.9C1047.1,684.5,1033.7,675,1018.1,675z"/>
			<path class="st42" d="M1043.1,700l-25-25C1018.1,688.8,1029.3,700,1043.1,700z"/>
		</g>
		<g>
			<rect x="405.7" y="675" class="st35" width="125" height="37.5"/>
			<rect x="405.7" y="693.7" class="st36" width="125" height="6.3"/>
			<rect x="405.7" y="675" class="st36" width="125" height="12.5"/>
		</g>
	</g>
</g>
<g id="Quat-gio" class="DM__coixaygio">
	<g>
		<g>
			<rect x="1793.8" y="424.6" class="st10" width="12.5" height="87.5"/>
			<path class="st3" d="M1793.8,412.1c6.9,0,12.5,5.6,12.5,12.5c0,6.9-5.6,12.5-12.5,12.5"/>
		</g>
		<g>
			<g>
				
					<rect x="1718.4" y="527.7" transform="matrix(0.866 -0.5 0.5 0.866 -30.9021 952.5941)" class="st10" width="87.5" height="12.5"/>
				<g>
					<path class="st3" d="M1716.5,567.5c-3.4-6-1.4-13.6,4.6-17.1c6-3.4,13.6-1.4,17.1,4.6"/>
				</g>
			</g>
		</g>
		<g>
			
				<rect x="1831.7" y="490.2" transform="matrix(0.5 -0.866 0.866 0.5 456.5279 1858.6483)" class="st10" width="12.5" height="87.5"/>
			<path class="st3" d="M1889.7,556.7c-3.4,6-11.1,8-17.1,4.6c-6-3.4-8-11.1-4.6-17.1"/>
		</g>
		<circle class="st3" cx="1800" cy="512.1" r="12.5"/>
	</g>
	
</g>
</svg>